{
  "images" : [
    {
      "filename" : "git_icon.pdf",
      "idiom" : "mac"
    }
  ],
  "info" : {
    "author" : "xcode",
    "version" : 1
  },
  "properties" : {
    "auto-scaling" : "auto",
    "localizable" : true
  }
}
